<?xml version="1.0" encoding="utf-8"?>
<!-- Generator: Adobe Illustrator 15.0.0, SVG Export Plug-In . SVG Version: 6.00 Build 0)  -->
<!DOCTYPE svg PUBLIC "-//W3C//DTD SVG 1.1//EN" "http://www.w3.org/Graphics/SVG/1.1/DTD/svg11.dtd">
<svg version="1.1" id="Layer_1" xmlns="http://www.w3.org/2000/svg" xmlns:xlink="http://www.w3.org/1999/xlink" x="0px" y="0px"
	 width="20px" height="40px" viewBox="0 0 20 40" enable-background="new 0 0 20 40" xml:space="preserve">
<polygon fill="#ED1C24" points="0.007,10.922 0.007,9.078 0.003,9.074 0.007,9.07 0.007,9.066 0.011,9.066 9.076,0 10.397,1.32 
	2.651,9.066 20,9.066 20,10.934 2.651,10.934 10.397,18.68 9.077,20 0.011,10.934 0.007,10.934 0.007,10.93 0.003,10.926 "/>
<polygon fill="#D1D2D1" points="0.007,30.923 0.007,29.078 0.003,29.074 0.007,29.07 0.007,29.066 0.011,29.066 9.076,20 
	10.397,21.32 2.651,29.066 20,29.066 20,30.934 2.651,30.934 10.397,38.68 9.077,40 0.011,30.934 0.007,30.934 0.007,30.931 
	0.003,30.927 "/>
</svg>
